{
    "KPlugin": {
        "Category": "Utilities",
        "Description": "Send file to other device using KDE Connect",
        "Description[ar]": "أرسل ملف إلى جهاز أخر باستعمال كدي المتصل",
        "Description[az]": "Digər cihazlara KDE Connect ilə fayl göndərin",
        "Description[bg]": "Изпращане на файл до друго устройство чрез KDE Connect",
        "Description[ca@valencia]": "Envia fitxers a un altre dispositiu mitjançant KDE Connect",
        "Description[ca]": "Envia fitxers a un altre dispositiu mitjançant el KDE Connect",
        "Description[cs]": "Poslat soubor na jiné zařízení přes KDE Connect",
        "Description[da]": "Send fil til en anden enhed med brug af KDE Connect",
        "Description[de]": "Datei zu anderem Gerät mit KDE Connect versenden",
        "Description[el]": "Αποστολή αρχείου σε άλλη συσκευή με το KDE Connect",
        "Description[en_GB]": "Send file to other device using KDE Connect",
        "Description[es]": "Enviar archivo a otro dispositivo usando KDE Connect",
        "Description[et]": "Faili saatmine teise seadmesse KDE Connecti kaudu",
        "Description[eu]": "Bidali fitxategia beste gailu batera KDE Connect erabiliz",
        "Description[fi]": "Lähetä tiedosto KDE Connectilla toiseen laitteeseen",
        "Description[fr]": "Envoyer le fichier vers un autre appareil KDE Connect",
        "Description[gl]": "Enviar o ficheiro a outro dispositivo usando KDE Connect",
        "Description[hu]": "Fájl küldése egy másik eszközre a KDE Connecttel",
        "Description[ia]": "Invia file a altere dispositivo usante KDE Connect",
        "Description[id]": "Kirim berkas ke peranti lain menggunakan KDE Connect",
        "Description[is]": "Senda skrár á annað tæki með KDE Connect",
        "Description[it]": "Invia file a un altro dispositivo utilizzando KDE Connect",
        "Description[ka]": "გაგზავნეთ ფაილი სხვა მოწყობილობაში KDE Connect- ის გამოყენებით",
        "Description[ko]": "KDE Connect로 다른 장치에 파일 보내기",
        "Description[lt]": "Siųsti failą į kitą įrenginį naudojant KDE Connect",
        "Description[nl]": "Bestand naar ander apparaat versturen met KDE Connect",
        "Description[nn]": "Send fil til anna eining via KDE Connect",
        "Description[pl]": "Przesyła pliki z tego na inne urządzenia, używając KDE Connect",
        "Description[pt]": "Envia o ficheiro para outro dispositivo através do KDE Connect",
        "Description[pt_BR]": "Envia o arquivo para outro dispositivo usando o KDE Connect",
        "Description[ro]": "Trimite fișier altui dispozitiv prin KDE Connect",
        "Description[ru]": "Передача файлов на другое устройство с использованием KDE Connect",
        "Description[sk]": "Odoslať súbor do iného zariadenia pomocou KDE Connect",
        "Description[sl]": "Pošljite datoteko na drugo napravo s pomočjo KDE Connect",
        "Description[sv]": "Skicka fil till en annan enhet med användning av KDE:s anslutningstjänst",
        "Description[tr]": "KDE Connect'i kullanarak dosyayı başka bir aygıta gönder",
        "Description[uk]": "Надіслати файл на інший пристрій за допомогою KDE Connect",
        "Description[x-test]": "xxSend file to other device using KDE Connectxx",
        "Description[zh_CN]": "使用 KDE Connect将文件发送到其他设备",
        "Description[zh_TW]": "使用 KDE 連線傳送檔案至其他裝置",
        "Icon": "kdeconnect",
        "License": "GPL",
        "MimeTypes": [
            "application/octet-stream"
        ],
        "Name": "Send file via KDE Connect",
        "Name[ar]": "أرسل ملف عبر كدي المتصل",
        "Name[az]": "Faylı KDE Connect ilə göndərin",
        "Name[bg]": "Изпращане на SMS чрез KDE Connect...",
        "Name[ca@valencia]": "Envia el fitxer a través de KDE Connect",
        "Name[ca]": "Envia el fitxer a través del KDE Connect",
        "Name[cs]": "Poslat soubor přes KDE Connect",
        "Name[da]": "Send fil via KDE Connect",
        "Name[de]": "Datei mit KDE Connect versenden",
        "Name[el]": "Αποστολή αρχείου μέσω KDE Connect",
        "Name[en_GB]": "Send file via KDE Connect",
        "Name[es]": "Enviar archivo con KDE Connect",
        "Name[et]": "Faili saatmine KDE Connecti kaudu",
        "Name[eu]": "Bidali fitxategia KDE Connect bidez",
        "Name[fi]": "Lähetä tiedosto KDE Connectilla",
        "Name[fr]": "Envoyer un fichier via KDE Connect",
        "Name[gl]": "Enviar o ficheiro por KDE Connect",
        "Name[hu]": "Fájl küldése a KDE Connecttel",
        "Name[ia]": "Invia file via KDE Connect",
        "Name[id]": "Send file via KDE Connect",
        "Name[ie]": "Inviar un file per KDE Connect",
        "Name[is]": "Sendu skrá með KDE Connect",
        "Name[it]": "Invia file tramite KDE Connect",
        "Name[ka]": "KDE Connect-ით ფაილების გაგზავნა",
        "Name[ko]": "KDE Connect로 파일 보내기",
        "Name[lt]": "Siųsti failą per KDE Connect",
        "Name[nl]": "Bestand via KDE Connect versturen",
        "Name[nn]": "Send fil via KDE Connect",
        "Name[pl]": "Wysyłanie plików poprzez KDE Connect",
        "Name[pt]": "Enviar o ficheiro pelo KDE Connect",
        "Name[pt_BR]": "Enviar arquivo via KDE Connect",
        "Name[ro]": "Trimite fișier prin KDE Connect",
        "Name[ru]": "Передача файлов с помощью KDE Connect",
        "Name[sk]": "Odoslať súbor cez KDE Connect",
        "Name[sl]": "Pošlji datoteko prek KDE Connect",
        "Name[sv]": "Skicka fil via KDE:s anslutningstjänst",
        "Name[tr]": "KDE Connect aracılığıyla dosya gönder",
        "Name[uk]": "Надіслати файл за допомогою KDE Connect",
        "Name[x-test]": "xxSend file via KDE Connectxx",
        "Name[zh_CN]": "通过 KDE Connect发送文件",
        "Name[zh_TW]": "使用 KDE 連線傳送檔案",
        "ServiceTypes": [
            "KFileItemAction/Plugin"
        ]
    }
}
